0,0,0,0,80,3
0,2,0,0,0,8
0,2,0,0,96,8
1,0,0,0,0,4
0,3,0,0,0,4
0,2,0,2,45,8
0,0,0,0,60,3
0,0,0,0,0,0
0,0,0,0,0,0
0,0,0,2,0,5
0,0,0,5,0,3
0,3,0,0,110,3
0,3,0,0,46,0
0,2,0,1,0,8
1,0,0,4,0,2
0,0,0,4,0,3
0,2,0,2,33,8
0,2,0,1,83,1
0,1,0,2,0,3
0,3,0,4,0,8
0,0,0,0,66,2
0,2,0,1,19,8
0,2,0,5,0,8
0,2,0,3,48,2
1,2,0,4,0,6
0,0,0,5,0,0
1,2,0,5,0,2
1,0,0,1,55,0
1,3,0,0,0,3
0,2,0,3,15,8
0,0,0,5,0,4
1,3,0,0,23,3
0,3,0,0,0,1
1,0,0,0,0,5
1,2,0,0,0,0
0,0,0,2,0,4
1,0,0,2,0,4
0,3,0,5,0,3
1,3,0,2,7,6
0,0,0,0,0,4
0,0,0,0,0,2
1,0,0,2,0,1
0,0,0,2,0,3
0,1,0,3,0,8
0,0,0,4,0,4
0,1,0,4,0,4
1,0,0,4,0,3
0,3,0,4,0,3
0,0,0,1,0,3
1,0,0,2,0,7
0,0,0,2,0,4
1,0,0,2,0,5
0,1,0,3,0,5
0,1,0,0,36,7
0,3,0,1,90,1
0,1,0,1,0,4
0,0,0,0,0,1
1,0,0,0,0,2
1,0,0,0,0,6
1,0,0,2,0,3
1,0,0,2,0,6
0,2,0,4,0,4
1,0,0,5,0,3
0,0,0,2,5,2
0,3,0,0,0,2
0,3,0,1,0,3
0,0,0,4,0,3
0,0,0,4,0,4
0,2,0,0,33,2
1,2,0,0,154,2
1,0,0,1,0,4
1,3,0,2,0,2
0,2,0,3,0,4
0,0,0,0,14,1
0,2,0,1,95,1
0,0,0,2,42,8
0,0,0,5,0,5
0,2,0,0,0,8
1,3,0,0,0,7
0,2,0,0,57,8
0,2,0,1,0,1
0,0,0,2,15,1
0,0,0,2,0,3
0,0,0,5,0,3
0,3,0,1,0,3
0,2,0,3,0,1
0,3,0,4,0,4
0,3,0,5,0,2
0,2,0,0,47,8
0,2,0,0,66,0
0,2,0,2,0,4
0,3,0,0,0,6
1,0,0,0,100,2
0,3,0,2,35,1
0,3,0,4,78,4
0,2,0,4,0,5
0,2,0,5,0,1
1,0,0,0,89,4
0,2,0,3,0,3